Two-server queueing system

Mean interarrival time 3 minutes

Mean service time 5 minutes

Length of the simulation 480



Average delay in queue 19 minutes

Average number in queue 7.19

Server One Utilization 0.938

Server Two Utilization 0.938

Number of delays completed 182
