Two-server queueing system

Mean interarrival time 3 minutes

Mean service time 5 minutes

Length of the simulation 480



Average delay in queue 3.16 minutes

Average number in queue 0.971

Server One Utilization 0.697

Server Two Utilization 0.697

Server Three Utilization 0.471

Number of delays completed 147
