Two-server queueing system

Mean interarrival time 3 minutes

Mean service time 5 minutes

Length of the simulation 480



Average delay in queue 4.01 minutes

Average number in queue 1.36

Server One Utilization 0.742

Server Two Utilization 0.742

Server Three Utilization 0.586

Number of delays completed 163
